{
  "project_info": {
    "project_number": "718740715196",
    "project_id": "property-f3b30",
    "storage_bucket": "property-f3b30.appspot.com"
  },
  "client": [
    {
      "client_info": {
        "mobilesdk_app_id": "1:718740715196:android:413163c5ff15586eda02b9",
        "android_client_info": {
          "package_name": "com.propertyproject"
        }
      },
      "oauth_client": [
        {
          "client_id": "718740715196-ffjr432kfe7p64obbto0jfes8j8aqopi.apps.googleusercontent.com",
          "client_type": 1,
          "android_info": {
            "package_name": "com.propertyproject",
            "certificate_hash": "5e8f16062ea3cd2c4a0d547876baa6f38cabf625"
          }
        },
        {
          "client_id": "718740715196-6j7n86vdafe28qc12jopgdtnpptgcksn.apps.googleusercontent.com",
          "client_type": 3
        }
      ],
      "api_key": [
        {
          "current_key": "AIzaSyCGx_U4B9nSdwkQ93RM1_kXkVMO7JA2TxQ"
        }
      ],
      "services": {
        "appinvite_service": {
          "other_platform_oauth_client": [
            {
              "client_id": "718740715196-6j7n86vdafe28qc12jopgdtnpptgcksn.apps.googleusercontent.com",
              "client_type": 3
            }
          ]
        }
      }
    }
  ],
  "configuration_version": "1"
}